{
    "template": "standardtheme",
    "cryptmethod": "AES-256-ECB",
    "routing":[
        {
            "method": "GET|POST",
            "url": "/",
            "class": "&#92;Emma&#92;Controllers&#92;Frontend&#92;Home&#92;HomeController"
        },
        {
            "method": "GET|POST",
            "url": "/beratung/@questionid",
            "class": "&#92;Emma&#92;Controllers&#92;Frontend&#92;Question&#92;OneQuestionController"
        },
        {
            "method": "GET|POST",
            "url": "/beratung/getquestion",
            "class": "&#92;Emma&#92;Controllers&#92;Frontend&#92;Question&#92;GetQuestionController"
        },
        {
            "method": "GET|POST",
            "url": "/beratung/@questionid/@additional_param",
            "class": "&#92;Emma&#92;Controllers&#92;Frontend&#92;Question&#92;OneQuestionController"
        },
        {
            "method": "GET|POST",
            "url": "/beratung",
            "class": "&#92;Emma&#92;Controllers&#92;Frontend&#92;Question&#92;QuestionController"
        },
        {
            "method": "GET|POST",
            "url": "/login",
            "class": "&#92;Emma&#92;Controllers&#92;Frontend&#92;Login&#92;LoginController"
        },
        {
            "method": "GET|POST",
            "url": "/logout",
            "class": "&#92;Emma&#92;Controllers&#92;Frontend&#92;Login&#92;LogoutController"
        },
        {
            "method": "GET|POST",
            "url": "/login/register",
            "class": "&#92;Emma&#92;Controllers&#92;Frontend&#92;Login&#92;RegisterController"
        },
        {
            "method": "GET|POSTs",
            "url": "/jobwahl/@jobparameter",
            "class": "&#92;Emma&#92;Controllers&#92;Frontend&#92;Beratung&#92;JobChoiceController"
        },
        {
            "method": "GET|POST",
            "url": "/api/@model",
            "class": "&#92;Emma&#92;Controllers&#92;Frontend&#92;Api&#92;ApiController"
        },
        {
            "method": "GET|POST",
            "url": "/api/@model/@method",
            "class": "&#92;Emma&#92;Controllers&#92;Frontend&#92;Api&#92;ApiController"
        },
        {
            "method": "GET|POST",
            "url": "/api/@model/@method/@objectid",
            "class": "&#92;Emma&#92;Controllers&#92;Frontend&#92;Api&#92;ApiController"
        }
    ],
    "db":
    {
        "driver": "pdo_mysql",
        "user": "tellmann",
        "password": "1017Emma&Friends!",
        "dbname": "tellmann"
    }
}