{
    "video": "http://tellmann.rmcdn.de/old_jannes/media/05112017/big_buck_bunny.mp4",
    "text": "Hier ist der Text für die Textberatung.",
    "heading": "Netto-Wunschrente",
    "subheading": "Netto-Wunschrente",
    "title": "8. Ermitteln Sie Ihre Netto-Wunschrente",
    "category": "Gesetzliche Rentenversicherung",
    "nextQuestion": [{
        "questionID": 11
    }],
	"forms": [10]
}