{
    "video": "http://tellmann.rmcdn.de/old_jannes/media/05112017/big_buck_bunny.mp4",
    "text": "Hier ist der Text für die Textberatung.",
    "heading": "Die Inflation",
    "subheading": "Die Inflation",
    "title": "1. Inflation",
    "category": "Grundlagen der Altersvorsorge",
    "nextQuestion": [{
        "questionID": 4
    }]
}