{
	"title": "Wählen Sie Ihren Berater",
	"fields": [{
		"id": 110,
		"type": "text",
		"defaultValue": "x €",
		"label": "Teil 1"
	},{
		"id": 111,
		"type": "text",
		"defaultValue": "x €",
		"label": "Teil 2"
	},{
		"id": 112,
		"type": "text",
		"defaultValue": "x €",
		"label": "Teil 3"
	},{
		"id": 113,
		"type": "text",
		"defaultValue": "x €",
		"label": "Teil 4"
	},{
		"id": 114,
		"type": "text",
		"defaultValue": "x €",
		"label": "Teil 5"
	},{
		"id": 115,
		"type": "text",
		"defaultValue": "x €",
		"label": "Teil 6"
	},{
		"id": 116,
		"type": "text",
		"defaultValue": "x €",
		"label": "Teil 7"
	},{
		"id": 117,
		"type": "text",
		"defaultValue": "x €",
		"label": "Teil 8"
	}]
}