{
	"title": "Wähle Deinen Berater",
	"fields": [{
		"id": 20,
		"type": "radio",
		"options": [{
			"value": 1,
			"label": "Kevin",
			"name": "Kevin Tellmann",
            "position": "CEO",
            "info": "XX Jahre Berufserfahrung",
            "eductation": "Ausbildung/Studium",
			"image": "https://www.xing.com/image/e_a_4_a32d38408_18855909_10/kevin-tellmann-foto.1024x1024.jpg",
			"video": "https://www.w3schools.com/html/mov_bbb.mp4"
		},{
			"value": 2,
			"label": "Kevin",
			"name": "Kevin Tellmann",
            "position": "CEO",
            "info": "XX Jahre Berufserfahrung",
            "eductation": "Ausbildung/Studium",
			"image": "https://www.xing.com/image/e_a_4_a32d38408_18855909_10/kevin-tellmann-foto.1024x1024.jpg",
			"video": "https://www.w3schools.com/html/mov_bbb.mp4"
		},{
			"value": 3,
			"label": "Kevin",
			"name": "Kevin Tellmann",
            "position": "CEO",
            "info": "XX Jahre Berufserfahrung",
            "eductation": "Ausbildung/Studium",
			"image": "https://www.xing.com/image/e_a_4_a32d38408_18855909_10/kevin-tellmann-foto.1024x1024.jpg",
			"video": "https://www.w3schools.com/html/mov_bbb.mp4"
		},{
			"value": 4,
			"label": "Kevin",
			"name": "Kevin Tellmann",
            "position": "CEO",
            "info": "XX Jahre Berufserfahrung",
            "eductation": "Ausbildung/Studium",
			"image": "https://www.xing.com/image/e_a_4_a32d38408_18855909_10/kevin-tellmann-foto.1024x1024.jpg",
			"video": "https://www.w3schools.com/html/mov_bbb.mp4"
		}],
		"label": "Wähle Deinen Berater"
	}]
}